{
	"camera" : 
	{
		"center" : "0.000 0.000 -1.000",
		"eye" : "0.000 0.000 0.000",
		"up" : "0.000 1.000 0.000"
	},
	"general" : 
	{
		"ambientcolor" : "0.30196078431372547 0.30196078431372547 0.30196078431372547",
		"bloom" : false,
		"bloomstrength" : 2,
		"bloomthreshold" : 0.64999997615814209,
		"camerafade" : true,
		"cameraparallax" : false,
		"cameraparallaxamount" : 0.5,
		"cameraparallaxdelay" : 0.10000000149011612,
		"cameraparallaxmouseinfluence" : 0,
		"camerapreview" : true,
		"camerashake" : false,
		"camerashakeamplitude" : 0.5,
		"camerashakeroughness" : 1,
		"camerashakespeed" : 3,
		"clearcolor" : "0.7 0.7 0.7",
		"orthogonalprojection" : 
		{
			"height" : 2160,
			"width" : 3840
		},
		"skylightcolor" : "0.3 0.3 0.3"
	},
	"objects" : 
	[
		{
			"angles" : "0.000 0.000 0.000",
			"colorBlendMode" : 0,
			"copybackground" : true,
			"effects" : 
			[
				{
					"file" : "effects/nitro/effect.json",
					"passes" : 
					[
						{
							"constantshadervalues" : 
							{
								"ui_editor_properties_color_end" : "0.882353 0.682353 0.682353",
								"ui_editor_properties_color_start" : "0.376471 0.623529 0.662745",
								"ui_editor_properties_multiply" : 1.0900000333786011,
								"ui_editor_properties_scale" : "1 4.5",
								"ui_editor_properties_speed" : "-0.1 0.6 0.1 0"
							},
							"textures" : 
							[
								null,
								"util/clouds_256",
								"masks/nitro_mask_681d95af21112ea41fc4cd51aa49d9c553ef1173"
							]
						}
					]
				}
			],
			"id" : 12,
			"image" : "models/Mecha-Girl-Anime-4K-HD-WallpapersByte-com-3840x2160.json",
			"name" : "Mecha-Girl-Anime-4K-HD-WallpapersByte-com-3840x2160",
			"origin" : "1920.000 1080.000 0.000",
			"parallaxDepth" : "1.000 1.000",
			"scale" : "1.000 1.000 1.000",
			"size" : "3840.000 2160.000",
			"visible" : true
		},
		{
			"angles" : "0.000 0.000 0.000",
			"id" : 189,
			"image" : null,
			"model" : null,
			"name" : "Snow particles",
			"origin" : "940.000 1600.000 0.000",
			"parallaxDepth" : "1.000 1.000",
			"particle" : "particles/presets/snowparticles.json",
			"particlesrc" : null,
			"scale" : "1.000 1.000 1.000"
		},
		{
			"angles" : "0.000 0.000 0.000",
			"id" : 193,
			"image" : null,
			"model" : null,
			"name" : "Snow particles",
			"origin" : "3500.000 1500.000 0.000",
			"parallaxDepth" : "1.000 1.000",
			"particle" : "particles/presets/snowparticles.json",
			"particlesrc" : null,
			"scale" : "1.000 1.000 1.000"
		}
	]
}